{
  "project_info": {
    "project_number": "1013795282974",
    "firebase_url": "https://xdrink-d55ba.firebaseio.com",
    "project_id": "xdrink-d55ba",
    "storage_bucket": "xdrink-d55ba.appspot.com"
  },
  "client": [
    {
      "client_info": {
        "mobilesdk_app_id": "1:1013795282974:android:b2efa5ef02244bff210e0f",
        "android_client_info": {
          "package_name": "io.ionic.starter"
        }
      },
      "oauth_client": [
        {
          "client_id": "1013795282974-bddar5bmu27q5j5g47cqb76phhm21344.apps.googleusercontent.com",
          "client_type": 3
        }
      ],
      "api_key": [
        {
          "current_key": "AIzaSyBgnZRVq75GN0ZR189aTTAQjgppSoEVnZ0"
        }
      ],
      "services": {
        "appinvite_service": {
          "other_platform_oauth_client": [
            {
              "client_id": "1013795282974-bddar5bmu27q5j5g47cqb76phhm21344.apps.googleusercontent.com",
              "client_type": 3
            }
          ]
        }
      }
    }
  ],
  "configuration_version": "1"
}